^C:\USERS\ВЛАДИМИР\DESKTOP\CHAT\CHAT.RC
/D _DEBUG /D _UNICODE /D UNICODE /l"0x0409" /IDebug\ /nologo /fo"DEBUG\CHAT.RES" CHAT.RC /D _DEBUG /D _UNICODE /D UNICODE /l"0x0409" /IDebug\ /nologo /fo"DEBUG\CHAT.RES" C:\USERS\ВЛАДИМИР\DESKTOP\CHAT\CHAT.RC
^C:\USERS\ВЛАДИМИР\DOCUMENTS\CHAT\CHAT\CHAT.RC
/D _DEBUG /D _UNICODE /D UNICODE /l"0x0409" /IDebug\ /nologo /fo"DEBUG\CHAT.RES" CHAT.RC /D _DEBUG /D _UNICODE /D UNICODE /l"0x0409" /IDebug\ /nologo /fo"DEBUG\CHAT.RES" C:\USERS\ВЛАДИМИР\DOCUMENTS\CHAT\CHAT\CHAT.RC
