^C:\USERS\ВЛАДИМИР\DESKTOP\CHAT\CHAT.CPP|C:\USERS\ВЛАДИМИР\DESKTOP\CHAT\CHATDLG.CPP
C:\USERS\владимир\DESKTOP\CHAT\RELEASE\VC120.PDB
C:\USERS\Владимир\DESKTOP\CHAT\RELEASE\CHATDLG.OBJ
C:\USERS\Владимир\DESKTOP\CHAT\RELEASE\CHAT.OBJ
^C:\USERS\ВЛАДИМИР\DESKTOP\CHAT\STDAFX.CPP
C:\USERS\Владимир\DESKTOP\CHAT\RELEASE\CHAT.PCH
C:\USERS\владимир\DESKTOP\CHAT\RELEASE\VC120.PDB
C:\USERS\Владимир\DESKTOP\CHAT\RELEASE\STDAFX.OBJ
^C:\USERS\ВЛАДИМИР\DESKTOP\CHAT\CHAT.CPP|C:\USERS\ВЛАДИМИР\DESKTOP\CHAT\CHATDLG.CPP|C:\USERS\ВЛАДИМИР\DESKTOP\CHAT\HISTORYDLG.CPP
C:\USERS\владимир\DESKTOP\CHAT\RELEASE\VC120.PDB
C:\USERS\Владимир\DESKTOP\CHAT\RELEASE\HISTORYDLG.OBJ
C:\USERS\Владимир\DESKTOP\CHAT\RELEASE\CHATDLG.OBJ
C:\USERS\Владимир\DESKTOP\CHAT\RELEASE\CHAT.OBJ
^C:\USERS\ВЛАДИМИР\DESKTOP\CHAT\CHAT.CPP
C:\USERS\ВЛАДИМИР\DESKTOP\CHAT\RELEASE\VC120.PDB
^C:\USERS\ВЛАДИМИР\DESKTOP\CHAT\HISTORYDLG.CPP
C:\USERS\ВЛАДИМИР\DESKTOP\CHAT\RELEASE\VC120.PDB
^C:\USERS\ВЛАДИМИР\DESKTOP\CHAT\CHATDLG.CPP
C:\USERS\владимир\DESKTOP\CHAT\RELEASE\VC120.PDB
C:\USERS\Владимир\DESKTOP\CHAT\RELEASE\CHATDLG.OBJ
